src/test_dff.vcd
$date
    Mon Apr 11 19:57:25 2022
$end
$version
    MyHDL 0.11
$end
$timescale
    1ns
$end

$scope module test_dff $end
$var reg 1 ! presset $end
$var reg 1 " clear $end
$var reg 1 # clk $end
$var reg 1 $ d $end
$var reg 1 % q $end
$scope module dff_inst $end
$var reg 1 # clk $end
$var reg 1 " clear $end
$var reg 1 $ d $end
$var reg 1 ! presset $end
$var reg 1 % q $end
$upscope $end
$upscope $end

$enddefinitions $end
$dumpvars
0!
0"
0#
0$
0%
$end
1"
#10
1#
#20
0#
1$
#30
1#
#40
0#
#50
1#
#60
0#
#70
0"
1#
1%
#80
0#
0$
#90
1#
0%
#100
0#
1$
#110
1#
1%
#120
0#
0$
#130
1#
0%
#140
0#
1$
#150
1#
1%
#160
0#
0$
#170
1#
0%
#180
0#
1$
#190
1#
1%
#200
0#
0$
#210
1#
0%
#220
0#
1$
#230
1#
1%
#240
0#
0$
#250
1#
0%
#260
0#
1$
#270
1#
1%
#280
0#
0$
#290
1#
0%
#300
0#
1$
#310
1#
1%
#320
0#
0$
#330
1#
0%
#340
0#
1$
#350
1#
1%
#360
0#
0$
#370
1#
0%
#380
0#
1$
#390
1#
1%
#400
0#
0$
#410
1#
0%
#420
0#
1$
#430
1#
1%
#440
0#
0$
#450
1#
0%
#460
0#
1$
#470
1#
1%
#480
0#
0$
#490
1#
0%
#500
0#
1$
#510
1#
1%
#520
0#
0$
#530
1#
0%
#540
0#
1$
#550
1#
1%
#560
0#
0$
#570
1#
0%
#580
0#
1$
#590
1#
1%
#600
0#
0$
#610
1#
0%
#620
0#
1$
#630
1#
1%
#640
0#
0$
#650
1#
0%
#660
0#
1$
#670
1#
1%
#680
0#
0$
#690
1#
0%
#700
0#
1$
#710
1#
1%
#720
0#
0$
#730
1#
0%
#740
0#
1$
#750
1#
1%
#760
0#
0$
#770
1#
0%
#780
0#
1$
#790
1#
1%
#800
0#
0$
#810
1#
0%
#820
0#
1$
#830
1#
1%
#840
0#
0$
#850
1#
0%
#860
0#
1$
#870
1#
1%
#880
0#
0$
#890
1#
0%
#900
0#
1$
#910
1#
1%
#920
0#
0$
#930
1#
0%
#940
0#
1$
#950
1#
1%
#960
0#
0$
#970
1#
0%
#980
0#
1$
#990
1#
1%
#1000
0#
0$
#1010
1#
0%
#1020
0#
1$
#1030
1#
1%
#1040
0#
0$
#1050
1#
0%
#1060
0#
1$
#1070
1#
1%
#1080
0#
0$
#1090
1#
0%
#1100
0#
1$
#1110
1#
1%
#1120
0#
0$
#1130
1#
0%
#1140
0#
1$
#1150
1#
1%
#1160
0#
0$
#1170
1#
0%
#1180
0#
1$
#1190
1#
1%
#1200
0#
0$
#1210
1#
0%
#1220
0#
1$
#1230
1#
1%
#1240
0#
0$
#1250
1#
0%
#1260
0#
1$
#1270
1#
1%
#1280
0#
0$
#1290
1#
0%
#1300
0#
1$
#1310
1#
1%
#1320
0#
0$
#1330
1#
0%
#1340
0#
1$
#1350
1#
1%
#1360
0#
0$
#1370
1#
0%
#1380
0#
1$
#1390
1#
1%
#1400
0#
0$
#1410
1#
0%
#1420
0#
1$
#1430
1#
1%
#1440
0#
0$
#1450
1#
0%
#1460
0#
1$
#1470
1#
1%
#1480
0#
0$
#1490
1#
0%
#1500
0#
1$
#1510
1#
1%
#1520
0#
0$
#1530
1#
0%
#1540
0#
1$
#1550
1#
1%
#1560
0#
0$
#1570
1#
0%
#1580
0#
1$
#1590
1#
1%
#1600
0#
0$
#1610
1#
0%
#1620
0#
1$
#1630
1#
1%
#1640
0#
0$
#1650
1#
0%
#1660
0#
1$
#1670
1#
1%
#1680
0#
0$
#1690
1#
0%
#1700
0#
1$
#1710
1#
1%
#1720
0#
0$
#1730
1#
0%
#1740
0#
1$
#1750
1#
1%
#1760
0#
0$
#1770
1#
0%
#1780
0#
1$
#1790
1#
1%
#1800
0#
0$
#1810
1#
0%
#1820
0#
1$
#1830
1#
1%
#1840
0#
0$
#1850
1#
0%
#1860
0#
1$
#1870
1#
1%
#1880
0#
0$
#1890
1#
0%
#1900
0#
1$
#1910
1#
1%
#1920
0#
0$
#1930
1#
0%
#1940
0#
1$
#1950
1#
1%
#1960
0#
0$
#1970
1#
0%
#1980
0#
1$
#1990
1#
1%
#2000
0#
0$
